48871 545260
402824 700299
374400 946711
300784 389223
159311 152304
26969 147317
554341 972151
765946 620433
45469 748328
710893 277932
808663 371905
281483 389827
901217 690758
875565 719302
902599 281727
414376 556957
664924 587460
909799 485667
132986 607277
908028 995572
483624 823535
48346 188223
496383 259125
850108 213273
326663 916680
783485 720783
384777 555073
452340 613746
529605 600895
745876 337635
661498 192988
185950 528914
417056 460510
136577 164931
998323 364052
836473 120002
729447 218278
9590 532993
523470 92066
873041 827850
548968 672833
649795 875626
600175 27981
121705 732088
470003 150933
589439 694105
585455 279201
978332 948273
775701 278070
635553 497539
12366 389558
438987 412467
289317 124240
489893 879542
178285 242721
501887 285113
286169 433822
166680 594726
143299 98996
744880 802242
52560 410283
511192 346646
121100 743398
33206 386865
658486 28235
476609 14666
825576 812646
649693 893752
402435 257632
485216 142641
548025 487634
282895 758915
685599 969989
510375 97966
820566 432397
559400 193008
842311 318458
385304 915064
481922 37485
776595 295995
985186 426104
929085 639218
964969 464695
822415 639958
750957 742160
88137 405281
149365 653183
70786 984172
110924 308818
105523 256638
588218 198149
702681 719610
424942 838046
583951 142154
15831 140195
248870 40182
25115 469128
981919 225883
217910 973023
728293 982863
933015 465710
817284 125236
558122 524813
507398 961970
148235 906923
757271 324174
744790 693388
150050 524133
219646 749413
769389 638970
439961 962493
170126 684375
71111 227243
633839 192693
337710 449445
803239 675712
817957 596934
773717 92120
122982 195269
480122 822601
184182 219643
359066 430771
621757 942168
721892 353944
423069 27675
59448 555489
825325 418500
837472 646389
80821 225173
29224 261618
191328 83976
707652 279549
156580 470469
351339 940780
576991 386318
890301 982036
289138 74898
125295 842040
56657 868363
580562 764830
429467 124961
631141 825286
192522 500256
738692 316372
385400 499626
255584 848184
208015 928084
196440 916421
468895 319579
395412 469639
934591 477906
338955 611236
608250 355204
734885 319847
480472 429528
471648 587653
891393 749381
404844 823155
317418 747523
409840 12458
215703 563800
128315 873172
885158 389179
381340 899819
523043 103307
744325 445948
502451 382628
862080 756734
220142 958243
505179 439487
709169 666027
370231 732007
169753 72255
211402 358064
616598 6956
626313 270541
562262 664333
269506 268654
411214 58102
436257 232232
489465 30283
319314 528154
192558 930930
81239 143670
637568 132685
84735 821482
274098 85583
718072 907592
114272 965762
773808 606792
746154 814109
923496 994400
939158 296128
970865 915604
214881 752372
558656 871922
386296 645273
94241 788861
641071 214155
430449 283910
861393 159533
822336 902988
771269 606872
324775 242114
933267 60702
902499 568608
410822 182293
885626 968335
631510 795540
405592 510056
915158 56745
664961 840006
606486 518116
846602 673594
889744 989500
454650 810175
164986 755389
98730 17083
114134 678366
670109 781212
383282 764970
764107 577397
885724 372022
2459 16378
261616 703723
930475 867399
229176 872481
948062 458940
978798 801725
64858 139641
438738 259699
944469 404979
537646 951365
81917 424709
425977 411599
570740 104916
611750 890924
499194 146462
654570 133906
926354 696131
234787 528643
576724 665019
381634 827146
156267 10504
598330 891905
