305405 266103
672728 180139
55390 576701
586012 226753
916701 192935
727578 877731
222981 253849
934339 606058
7738 202229
923330 480048
340959 186622
847635 849754
973214 77319
183830 203290
197254 926689
116853 140829
137774 250542
459885 28798
471319 732479
812111 20365
4626 515144
63533 892848
16039 181198
620590 242762
170049 226531
194194 95762
518314 891318
720568 132069
618311 726561
186018 65570
713789 775441
506737 415656
223650 307329
147267 76109
881716 750815
711945 514076
305708 803623
462642 716479
681156 940407
144789 852179
524865 339654
68732 192536
8218 663850
220532 578113
251980 913024
634947 814883
842453 447833
123049 378262
153523 91390
977732 178688
733117 441312
758660 766950
980438 784473
869034 445350
942965 818350
204827 122648
179859 194868
146335 608141
270402 485805
361807 48367
894989 21656
319074 246313
22326 963185
381812 552012
758044 580675
433969 127333
732900 257738
88311 298611
418394 212262
831015 623535
341629 996817
1880 27091
25610 73070
993321 519815
747680 40690
679548 964242
768858 150946
694143 256395
941674 484236
616999 664161
512736 318094
286760 755152
263744 957587
796751 785504
719780 409485
832715 943568
408408 941938
361020 136154
937216 515319
774313 292768
793874 299363
602087 502063
663129 255880
254960 959017
290738 982106
683006 236576
960136 257705
26861 562349
937546 446271
376644 830907
160838 812129
311774 542708
287514 616306
153682 698887
1840 799018
378614 618288
463394 312955
419008 902374
599967 520921
65127 626626
703464 14311
816700 39417
387074 982015
948364 723427
19879 848
826844 548784
890566 999957
374988 781641
141356 195478
391335 712633
627351 888500
577397 250524
956793 80022
888456 829110
479887 743325
3465 486280
720444 249073
497543 487224
131402 295917
374693 465873
130947 828828
181648 627060
230002 803518
21008 858400
844672 515525
61672 134222
972739 44861
408215 457299
432586 645246
460759 681500
62113 51704
74266 623590
408013 160020
79793 568636
188405 750199
601798 379524
164185 268990
259873 571947
150918 45981
431840 599507
320333 741679
333915 280660
882739 269635
937109 537976
857122 692986
718459 549671
683849 74384
537694 470815
25506 979796
854631 848670
29042 915173
679604 709904
945661 183319
308267 703446
481813 610124
404996 658799
644430 234285
692626 973058
144203 857465
543677 113913
950655 553173
511809 661962
523679 43941
554686 760864
708196 791258
273963 819744
681408 970776
959510 14705
797162 524234
762092 604766
449711 31969
444983 344504
163423 100708
419343 296745
219421 760902
176878 512713
547853 14277
954015 106233
821269 814628
231569 464563
393589 188241
376384 64726
954196 941717
388987 285174
278340 149358
445520 407843
577442 545984
558355 313112
989401 358700
229156 391942
362229 306958
795052 697210
721952 32344
104353 693390
81324 310263
905889 781497
83429 723083
103729 116423
980864 731243
570656 127426
894904 990436
491443 530943
909904 999727
40560 276631
810363 492017
15386 231225
68012 372302
918203 933833
856343 659430
532406 176336
805720 278020
368895 692960
